%YAML 1.1
%TAG !u! tag:unity3d.com,2011:
--- !u!1 &5336641472939351813
GameObject:
  m_ObjectHideFlags: 0
  m_CorrespondingSourceObject: {fileID: 0}
  m_PrefabInstance: {fileID: 0}
  m_PrefabAsset: {fileID: 0}
  serializedVersion: 6
  m_Component:
  - component: {fileID: 7072127051580478721}
  - component: {fileID: 2990200679528222771}
  - component: {fileID: 7920288374269570698}
  m_Layer: 0
  m_Name: CarParked
  m_TagString: Obstacle
  m_Icon: {fileID: 0}
  m_NavMeshLayer: 0
  m_StaticEditorFlags: 0
  m_IsActive: 1
--- !u!4 &7072127051580478721
Transform:
  m_ObjectHideFlags: 0
  m_CorrespondingSourceObject: {fileID: 0}
  m_PrefabInstance: {fileID: 0}
  m_PrefabAsset: {fileID: 0}
  m_GameObject: {fileID: 5336641472939351813}
  m_LocalRotation: {x: 0, y: 0, z: 0, w: 1}
  m_LocalPosition: {x: -2.07, y: 0.0000032931566, z: 0.085675}
  m_LocalScale: {x: 1, y: 1, z: 1}
  m_Children:
  - {fileID: 7187969389258432060}
  m_Father: {fileID: 0}
  m_RootOrder: 0
  m_LocalEulerAnglesHint: {x: 0, y: 0, z: 0}
--- !u!54 &2990200679528222771
Rigidbody:
  m_ObjectHideFlags: 0
  m_CorrespondingSourceObject: {fileID: 0}
  m_PrefabInstance: {fileID: 0}
  m_PrefabAsset: {fileID: 0}
  m_GameObject: {fileID: 5336641472939351813}
  serializedVersion: 2
  m_Mass: 100
  m_Drag: 1
  m_AngularDrag: 10
  m_UseGravity: 1
  m_IsKinematic: 0
  m_Interpolate: 0
  m_Constraints: 0
  m_CollisionDetection: 0
--- !u!65 &7920288374269570698
BoxCollider:
  m_ObjectHideFlags: 0
  m_CorrespondingSourceObject: {fileID: 0}
  m_PrefabInstance: {fileID: 0}
  m_PrefabAsset: {fileID: 0}
  m_GameObject: {fileID: 5336641472939351813}
  m_Material: {fileID: 0}
  m_IsTrigger: 0
  m_Enabled: 1
  serializedVersion: 2
  m_Size: {x: 1, y: 1, z: 2.5}
  m_Center: {x: 0, y: 0.5, z: 0}
--- !u!1001 &7192672428961773934
PrefabInstance:
  m_ObjectHideFlags: 0
  serializedVersion: 2
  m_Modification:
    m_TransformParent: {fileID: 7072127051580478721}
    m_Modifications:
    - target: {fileID: 1646981259178978, guid: 512151c1530b99343a884b12ee9c5e1e, type: 3}
      propertyPath: m_Name
      value: Car_3
      objectReference: {fileID: 0}
    - target: {fileID: 4870167790249810, guid: 512151c1530b99343a884b12ee9c5e1e, type: 3}
      propertyPath: m_RootOrder
      value: 0
      objectReference: {fileID: 0}
    - target: {fileID: 4870167790249810, guid: 512151c1530b99343a884b12ee9c5e1e, type: 3}
      propertyPath: m_LocalPosition.x
      value: 0
      objectReference: {fileID: 0}
    - target: {fileID: 4870167790249810, guid: 512151c1530b99343a884b12ee9c5e1e, type: 3}
      propertyPath: m_LocalPosition.y
      value: 0
      objectReference: {fileID: 0}
    - target: {fileID: 4870167790249810, guid: 512151c1530b99343a884b12ee9c5e1e, type: 3}
      propertyPath: m_LocalPosition.z
      value: 0
      objectReference: {fileID: 0}
    - target: {fileID: 4870167790249810, guid: 512151c1530b99343a884b12ee9c5e1e, type: 3}
      propertyPath: m_LocalRotation.w
      value: 1
      objectReference: {fileID: 0}
    - target: {fileID: 4870167790249810, guid: 512151c1530b99343a884b12ee9c5e1e, type: 3}
      propertyPath: m_LocalRotation.x
      value: 0
      objectReference: {fileID: 0}
    - target: {fileID: 4870167790249810, guid: 512151c1530b99343a884b12ee9c5e1e, type: 3}
      propertyPath: m_LocalRotation.y
      value: 0
      objectReference: {fileID: 0}
    - target: {fileID: 4870167790249810, guid: 512151c1530b99343a884b12ee9c5e1e, type: 3}
      propertyPath: m_LocalRotation.z
      value: 0
      objectReference: {fileID: 0}
    - target: {fileID: 4870167790249810, guid: 512151c1530b99343a884b12ee9c5e1e, type: 3}
      propertyPath: m_LocalEulerAnglesHint.x
      value: 0
      objectReference: {fileID: 0}
    - target: {fileID: 4870167790249810, guid: 512151c1530b99343a884b12ee9c5e1e, type: 3}
      propertyPath: m_LocalEulerAnglesHint.y
      value: 0
      objectReference: {fileID: 0}
    - target: {fileID: 4870167790249810, guid: 512151c1530b99343a884b12ee9c5e1e, type: 3}
      propertyPath: m_LocalEulerAnglesHint.z
      value: 0
      objectReference: {fileID: 0}
    m_RemovedComponents: []
  m_SourcePrefab: {fileID: 100100000, guid: 512151c1530b99343a884b12ee9c5e1e, type: 3}
--- !u!4 &7187969389258432060 stripped
Transform:
  m_CorrespondingSourceObject: {fileID: 4870167790249810, guid: 512151c1530b99343a884b12ee9c5e1e, type: 3}
  m_PrefabInstance: {fileID: 7192672428961773934}
  m_PrefabAsset: {fileID: 0}
