{
    "car_density": {
        "lesson_num": 0
    },
    "map_size": {
        "lesson_num": 0
    },
    "CarBehavior": {
        "checkpoints": [
            {
                "steps": 499632,
                "file_path": "results\\CarParkingCurriculum2\\CarBehavior\\CarBehavior-499632.onnx",
                "reward": -0.24121788454899354,
                "creation_time": 1647103497.8814332,
                "auxillary_file_paths": [
                    "results\\CarParkingCurriculum2\\CarBehavior\\CarBehavior-499632.pt"
                ]
            }
        ],
        "final_checkpoint": {
            "steps": 499632,
            "file_path": "results\\CarParkingCurriculum2\\CarBehavior.onnx",
            "reward": -0.24121788454899354,
            "creation_time": 1647103497.8814332,
            "auxillary_file_paths": [
                "results\\CarParkingCurriculum2\\CarBehavior\\CarBehavior-499632.pt"
            ]
        }
    },
    "metadata": {
        "stats_format_version": "0.3.0",
        "mlagents_version": "0.28.0",
        "torch_version": "1.8.2+cu102"
    }
}