{
    "name": "root",
    "gauges": {
        "CarBehavior.Policy.Entropy.mean": {
            "value": 10.869890213012695,
            "min": 1.3974074125289917,
            "max": 10.940302848815918,
            "count": 282
        },
        "CarBehavior.Policy.Entropy.sum": {
            "value": 109568.4921875,
            "min": 447.6306457519531,
            "max": 228323.546875,
            "count": 282
        },
        "CarBehavior.Environment.LessonNumber.car_density.mean": {
            "value": 0.0,
            "min": 0.0,
            "max": 0.0,
            "count": 282
        },
        "CarBehavior.Environment.LessonNumber.car_density.sum": {
            "value": 0.0,
            "min": 0.0,
            "max": 0.0,
            "count": 282
        },
        "CarBehavior.Environment.LessonNumber.map_size.mean": {
            "value": 0.0,
            "min": 0.0,
            "max": 0.0,
            "count": 282
        },
        "CarBehavior.Environment.LessonNumber.map_size.sum": {
            "value": 0.0,
            "min": 0.0,
            "max": 0.0,
            "count": 282
        },
        "CarBehavior.Environment.EpisodeLength.mean": {
            "value": 399.06666666666666,
            "min": 95.0,
            "max": 400.0,
            "count": 282
        },
        "CarBehavior.Environment.EpisodeLength.sum": {
            "value": 11972.0,
            "min": 190.0,
            "max": 38400.0,
            "count": 282
        },
        "CarBehavior.Step.mean": {
            "value": 4391718.0,
            "min": 11629.0,
            "max": 4391718.0,
            "count": 366
        },
        "CarBehavior.Step.sum": {
            "value": 4391718.0,
            "min": 11629.0,
            "max": 4391718.0,
            "count": 366
        },
        "CarBehavior.Policy.ExtrinsicValueEstimate.mean": {
            "value": -0.18635272979736328,
            "min": -0.2683601677417755,
            "max": 0.10041772574186325,
            "count": 366
        },
        "CarBehavior.Policy.ExtrinsicValueEstimate.sum": {
            "value": -5.590581893920898,
            "min": -10.861462593078613,
            "max": 3.0125317573547363,
            "count": 366
        },
        "CarBehavior.Environment.CumulativeReward.mean": {
            "value": -1.0065078099568685,
            "min": -1.893187435468038,
            "max": 0.2283206137846101,
            "count": 366
        },
        "CarBehavior.Environment.CumulativeReward.sum": {
            "value": -30.195234298706055,
            "min": -56.79562306404114,
            "max": 12.100992530584335,
            "count": 366
        },
        "CarBehavior.Policy.ExtrinsicReward.mean": {
            "value": -1.0065078099568685,
            "min": -1.893187435468038,
            "max": 0.2283206137846101,
            "count": 366
        },
        "CarBehavior.Policy.ExtrinsicReward.sum": {
            "value": -30.195234298706055,
            "min": -56.79562306404114,
            "max": 12.100992530584335,
            "count": 366
        },
        "CarBehavior.IsTraining.mean": {
            "value": 1.0,
            "min": 1.0,
            "max": 1.0,
            "count": 366
        },
        "CarBehavior.IsTraining.sum": {
            "value": 1.0,
            "min": 1.0,
            "max": 1.0,
            "count": 366
        },
        "CarBehavior.Losses.PolicyLoss.mean": {
            "value": 0.025108986301347613,
            "min": 0.02337155875808618,
            "max": 0.31060675779978436,
            "count": 172
        },
        "CarBehavior.Losses.PolicyLoss.sum": {
            "value": 0.025108986301347613,
            "min": 0.02337155875808618,
            "max": 0.31060675779978436,
            "count": 172
        },
        "CarBehavior.Losses.ValueLoss.mean": {
            "value": 0.006504773697815836,
            "min": 0.0020204993512330425,
            "max": 0.20277544250082527,
            "count": 172
        },
        "CarBehavior.Losses.ValueLoss.sum": {
            "value": 0.006504773697815836,
            "min": 0.0020204993512330425,
            "max": 0.20277544250082527,
            "count": 172
        },
        "CarBehavior.Policy.LearningRate.mean": {
            "value": 0.029868860640437138,
            "min": 0.029868860640437138,
            "max": 0.029998845120003833,
            "count": 172
        },
        "CarBehavior.Policy.LearningRate.sum": {
            "value": 0.029868860640437138,
            "min": 0.029868860640437138,
            "max": 0.029998845120003833,
            "count": 172
        },
        "CarBehavior.Policy.Epsilon.mean": {
            "value": 0.19956286879999993,
            "min": 0.19956286879999993,
            "max": 0.19999615040000007,
            "count": 172
        },
        "CarBehavior.Policy.Epsilon.sum": {
            "value": 0.19956286879999993,
            "min": 0.19956286879999993,
            "max": 0.19999615040000007,
            "count": 172
        },
        "CarBehavior.Policy.Beta.mean": {
            "value": 0.00099567240112,
            "min": 0.00099567240112,
            "max": 0.0009999618889599997,
            "count": 172
        },
        "CarBehavior.Policy.Beta.sum": {
            "value": 0.00099567240112,
            "min": 0.00099567240112,
            "max": 0.0009999618889599997,
            "count": 172
        }
    },
    "metadata": {
        "timer_format_version": "0.1.0",
        "start_time_seconds": "1647192708",
        "python_version": "3.7.9 (tags/v3.7.9:13c94747c7, Aug 17 2020, 18:58:18) [MSC v.1900 64 bit (AMD64)]",
        "command_line_arguments": "C:\\Users\\Dave\\AppData\\Local\\Programs\\Python\\Python37\\Scripts\\mlagents-learn config/CarParking.yaml --run-id=CarParkingCurriculum5 --force",
        "mlagents_version": "0.28.0",
        "mlagents_envs_version": "0.28.0",
        "communication_protocol_version": "1.5.0",
        "pytorch_version": "1.8.2+cu102",
        "numpy_version": "1.18.2",
        "end_time_seconds": "1647196010"
    },
    "total": 3301.2217111,
    "count": 1,
    "self": 0.013187399999878835,
    "children": {
        "run_training.setup": {
            "total": 0.10049419999999998,
            "count": 1,
            "self": 0.10049419999999998
        },
        "TrainerController.start_learning": {
            "total": 3301.1080295,
            "count": 1,
            "self": 1.7653540999717734,
            "children": {
                "TrainerController._reset_env": {
                    "total": 9.7381471,
                    "count": 1,
                    "self": 9.7381471
                },
                "TrainerController.advance": {
                    "total": 3289.5025568000283,
                    "count": 51710,
                    "self": 1.9680955999465368,
                    "children": {
                        "env_step": {
                            "total": 1837.1815832000168,
                            "count": 51710,
                            "self": 1694.330000400037,
                            "children": {
                                "SubprocessEnvManager._take_step": {
                                    "total": 142.20599179998044,
                                    "count": 51710,
                                    "self": 4.718517699963542,
                                    "children": {
                                        "TorchPolicy.evaluate": {
                                            "total": 137.4874741000169,
                                            "count": 45964,
                                            "self": 94.88781430003527,
                                            "children": {
                                                "TorchPolicy.sample_actions": {
                                                    "total": 42.599659799981616,
                                                    "count": 45964,
                                                    "self": 42.599659799981616
                                                }
                                            }
                                        }
                                    }
                                },
                                "workers": {
                                    "total": 0.6455909999993512,
                                    "count": 51710,
                                    "self": 0.0,
                                    "children": {
                                        "worker_root": {
                                            "total": 3288.5781354999826,
                                            "count": 51710,
                                            "is_parallel": true,
                                            "self": 1775.8651638999854,
                                            "children": {
                                                "steps_from_proto": {
                                                    "total": 0.004352300000000753,
                                                    "count": 1,
                                                    "is_parallel": true,
                                                    "self": 0.0002486000000008204,
                                                    "children": {
                                                        "_process_rank_one_or_two_observation": {
                                                            "total": 0.004103699999999932,
                                                            "count": 6,
                                                            "is_parallel": true,
                                                            "self": 0.004103699999999932
                                                        }
                                                    }
                                                },
                                                "UnityEnvironment.step": {
                                                    "total": 1512.7086192999973,
                                                    "count": 51710,
                                                    "is_parallel": true,
                                                    "self": 53.431434000031004,
                                                    "children": {
                                                        "UnityEnvironment._generate_step_input": {
                                                            "total": 48.4726733999609,
                                                            "count": 51710,
                                                            "is_parallel": true,
                                                            "self": 48.4726733999609
                                                        },
                                                        "communicator.exchange": {
                                                            "total": 1198.9983357999906,
                                                            "count": 51710,
                                                            "is_parallel": true,
                                                            "self": 1198.9983357999906
                                                        },
                                                        "steps_from_proto": {
                                                            "total": 211.8061761000148,
                                                            "count": 51710,
                                                            "is_parallel": true,
                                                            "self": 10.149670600029026,
                                                            "children": {
                                                                "_process_rank_one_or_two_observation": {
                                                                    "total": 201.65650549998577,
                                                                    "count": 310260,
                                                                    "is_parallel": true,
                                                                    "self": 201.65650549998577
                                                                }
                                                            }
                                                        }
                                                    }
                                                }
                                            }
                                        }
                                    }
                                }
                            }
                        },
                        "trainer_advance": {
                            "total": 1450.3528780000652,
                            "count": 51710,
                            "self": 3.3921735000360513,
                            "children": {
                                "process_trajectory": {
                                    "total": 507.03357010002753,
                                    "count": 51710,
                                    "self": 506.3345852000277,
                                    "children": {
                                        "RLTrainer._checkpoint": {
                                            "total": 0.6989848999998571,
                                            "count": 8,
                                            "self": 0.6989848999998571
                                        }
                                    }
                                },
                                "_update_policy": {
                                    "total": 939.9271344000016,
                                    "count": 173,
                                    "self": 757.842142800013,
                                    "children": {
                                        "TorchPPOOptimizer.update": {
                                            "total": 182.08499159998857,
                                            "count": 12623,
                                            "self": 182.08499159998857
                                        }
                                    }
                                }
                            }
                        }
                    }
                },
                "trainer_threads": {
                    "total": 1.0000003385357559e-06,
                    "count": 1,
                    "self": 1.0000003385357559e-06
                },
                "TrainerController._save_models": {
                    "total": 0.1019704999998794,
                    "count": 1,
                    "self": 0.010487099999863858,
                    "children": {
                        "RLTrainer._checkpoint": {
                            "total": 0.09148340000001554,
                            "count": 1,
                            "self": 0.09148340000001554
                        }
                    }
                }
            }
        }
    }
}