{
    "CarBehavior": {
        "checkpoints": [
            {
                "steps": 499996,
                "file_path": "results\\CarParking\\CarBehavior\\CarBehavior-499996.onnx",
                "reward": -0.910839293922531,
                "creation_time": 1647097206.8082418,
                "auxillary_file_paths": [
                    "results\\CarParking\\CarBehavior\\CarBehavior-499996.pt"
                ]
            },
            {
                "steps": 530025,
                "file_path": "results\\CarParking\\CarBehavior\\CarBehavior-530025.onnx",
                "reward": -0.9113142599597838,
                "creation_time": 1647097303.082734,
                "auxillary_file_paths": [
                    "results\\CarParking\\CarBehavior\\CarBehavior-530025.pt"
                ]
            }
        ],
        "final_checkpoint": {
            "steps": 530025,
            "file_path": "results\\CarParking\\CarBehavior.onnx",
            "reward": -0.9113142599597838,
            "creation_time": 1647097303.082734,
            "auxillary_file_paths": [
                "results\\CarParking\\CarBehavior\\CarBehavior-530025.pt"
            ]
        }
    },
    "metadata": {
        "stats_format_version": "0.3.0",
        "mlagents_version": "0.28.0",
        "torch_version": "1.8.2+cu102"
    }
}